Extracting snapshots of the wind field at different times • stormwindmodel
…
hk_winds <- mangkhut_winds$vmax_sust[ , "2995"] %>% 
  enframe(name = "date", value = "vmax_sust") %>% 
  mutate(date = ymd_hms(date))
hk_winds
#> # A tibble: 1,081 × 2
#>    date                vmax_sust
#>    <dttm>                  <dbl>
#>  1 2018-09-06 12:00:00         0
#>  2 2018-09-06 12:15:00         0
#>  3 2018-09-06 12:30:00         0
#>  4 2018-09-06 12:45:00         0
#>  5 2018-09-06 13:00:00         0
#>  6 2018-09-06 13:15:00         0
#>  7 2018-09-06 13:30:00         0
#>  8 2018-09-06 13:45:00         0
#>  9 2018-09-06 14:00:00         0
#> 10 2018-09-06 14:15:00         0
#> # ℹ 1,071 more rows
…
